Data Visualisation - Introduction to Data Visualisation
…
Preattentive attributes that we can use in our visualisations to direct our readers attention.

Watch this video.

Exercise

Draw a plot to show the relationship between Life Expectancy and Countries

library(gapminder)
library(tidyverse)
gapminder |>
  filter(year == 2007, continent == "Americas") |>
  select(country, lifeExp)

# A tibble: 25 × 2
   country            lifeExp
   <fct>                <dbl>
 1 Argentina             75.3
 2 Bolivia               65.6
 3 Brazil                72.4
 4 Canada                80.7
 5 Chile                 78.6
 6 Colombia              72.9
 7 Costa Rica            78.8
 8 Cuba                  78.3
 9 Dominican Republic    72.2
10 Ecuador               75.0
# ℹ 15 more rows
…
